40
20

w wwwwwwwwwwwwwwwwwwwwwwwwwwwwwwwwwwwwww
w w              h w   Rw             Kw
w w  wwwwwwwww     w w  w  www   wwwwwww
w w  w      rw     w w                 w
w w  w w  k  w     w w        G   F    w
w w  w wwwwwwwwww  w wwwwwwwwwwwwwwwww w
w w  w     c    w  w w                 w
w w  w     g    w  w w wwwwwwwwwwwwwwwww
w    w          w  w w                Tw
wwwwww  wwww    w  w wwwwwwwwwwwwwwww  w
w       w  w       w w                 w
w  w    w  wwwwwwwww w  wwwwwwwwwwwwwwww
w  w  n w          d w      w     w    D
w  wwwwww  wwwwwwwww w  N   w  w  www  w
w  w              tw wwwwwwww  w  w w  w
w  w  wwwwwwww     w w C w        w w  w
w  w       f w     w w       www       w
w  wwwwwwwwwwwwww  w w wwwwwww wwwwww  w
w                  w     H             w
wwwwwwwwwwwwwwwwwwwwwwwwwwwwwwwwwwwwwwww